<svg xmlns="http://www.w3.org/2000/svg" version="1.1" width="60" height="90">
    <rect width="100%" height="100%" x="0" y="0" fill="none" stroke="none"/>
    <g>
        <rect width="60" height="90" rx="10" ry="10" x="0" y="0"
              style="fill:#ffffff;fill-opacity:1;fill-rule:evenodd;stroke:#000000;stroke-width:0.5;stroke-miterlimit:4;stroke-dasharray:none"/>
        <rect width="50" height="80" rx="5" ry="5" x="5" y="5"
              style="fill-opacity:1;fill-rule:evenodd;stroke:none"/>
        <path d="m45,19.999987382812492 c-22.09139,0 -40,17.90861 -40,40 c0,5.52285 4.47715,10 10,10 c22.09139,0 40,-17.90861 40,-40 c0,-5.52285 -4.47715,-10 -10,-10 z"
              style="fill:#ffffff;fill-opacity:1;fill-rule:evenodd;stroke:none"/>
        <path d="m30.03125,30.000027382812505 c-3.83883,-0.005000000000000002 -7.6922500000000005,1.44991 -10.625,4.375 c-5.8655,5.85022 -5.88143,15.35325 -0.031200000000000012,21.21875 c5.85022,5.8655 15.35325,5.88143 21.21875,0.031200000000000012 c5.8655,-5.85022 5.88143,-15.35325 0.031200000000000012,-21.21875 c-2.92511,-2.93275 -6.75492,-4.40124 -10.59375,-4.40625 zm-0.031200000000000012,5 c1.74988,0.002000000000000001 3.50772,0.46009 5.0625,1.375 l-13.6875,13.6875 c-2.26035,-3.83781 -1.7368100000000002,-8.8655 1.5625,-12.15625 c1.95517,-1.9500700000000002 4.50328,-2.90958 7.0625,-2.90625 zm8.625,4.90625 c2.27597,3.84073 1.7433900000000002,8.8902 -1.5625,12.1875 c-3.3027,3.29409 -8.32289,3.77828 -12.15625,1.5 l13.71875,-13.6875 z"
              style="fill-opacity:1;fill-rule:evenodd;stroke:none"/>
        <path d="m15.01558,7.499987382812492 c-1.91905,-0.003000000000000002 -3.8454,0.7248900000000003 -5.3115,2.1873 c-2.9321900000000003,2.92483 -2.94015,7.67591 -0.015600000000000006,10.60839 c2.92456,2.93247 7.6752,2.94044 10.6074,0.015600000000000006 c2.9321900000000003,-2.92483 2.94016,-7.67591 0.015600000000000006,-10.60838 c-1.4622899999999999,-1.46625 -3.37682,-2.20042 -5.2959,-2.20293 zm-0.015600000000000006,2.49978 c0.8747700000000004,0.0009900000000000004 1.75354,0.23001000000000005 2.53078,0.6874200000000003 l-6.8424700000000005,6.84312 c-1.12998,-1.91873 -0.8682500000000002,-4.43234 0.7811,-6.07756 c0.9774099999999998,-0.97495 2.25122,-1.45466 3.53059,-1.4529800000000002 zm4.3117,2.45288 c1.13777,1.9202 0.87153,4.4447 -0.78111,6.09319 c-1.65104,1.6469 -4.16067,1.88897 -6.07699,0.7499300000000002 l6.8581,-6.84312 z"
              style="fill:#ffffff;fill-opacity:1;fill-rule:evenodd;stroke:none"/>
        <path d="m45.01558,67.49998738281249 c-1.91905,-0.003000000000000002 -3.8454,0.7248900000000003 -5.3115,2.1873 c-2.9321900000000003,2.92483 -2.94015,7.67591 -0.015600000000000006,10.60839 c2.92456,2.93247 7.6752,2.94044 10.6074,0.015600000000000006 c2.9321900000000003,-2.92483 2.94016,-7.67591 0.015600000000000006,-10.60838 c-1.4622899999999999,-1.46625 -3.37682,-2.20042 -5.2959,-2.20293 zm-0.015600000000000006,2.49978 c0.8747700000000004,0.0009900000000000004 1.75354,0.23001000000000005 2.53078,0.6874200000000003 l-6.8424700000000005,6.84312 c-1.12998,-1.91873 -0.8682500000000002,-4.43234 0.7811,-6.07756 c0.9774099999999998,-0.97495 2.25122,-1.45466 3.53059,-1.4529800000000002 zm4.3117,2.45288 c1.13777,1.9202 0.87153,4.4447 -0.78111,6.09319 c-1.65104,1.6469 -4.16067,1.88897 -6.07699,0.7499300000000002 l6.8581,-6.84312 z"
              style="fill:#ffffff;fill-opacity:1;fill-rule:evenodd;stroke:none"/>
    </g>
</svg>
