<svg xmlns="http://www.w3.org/2000/svg" version="1.1" width="60" height="90">
    <rect width="100%" height="100%" x="0" y="0" fill="none" stroke="none"/>

    <g>
        <rect width="60" height="90" rx="10" ry="10" x="0" y="0"
              style="fill:#ffffff;fill-opacity:1;fill-rule:evenodd;stroke:#000000;stroke-width:0.5;stroke-miterlimit:4;stroke-dasharray:none"/>
        <rect width="50" height="80" rx="5" ry="5" x="5" y="5"
              style="fill-opacity:1;fill-rule:evenodd;stroke:none"/>
        <path d="m45,19.999987382812492 c-22.09139,0 -40,17.90861 -40,40 c0,5.52285 4.47715,10 10,10 c22.09139,0 40,-17.90861 40,-40 c0,-5.52285 -4.47715,-10 -10,-10 z"
              style="fill:#ffffff;fill-opacity:1;fill-rule:evenodd;stroke:none"/>
        <path d="m30,29.999987382812492 c-5.52285,0 -10,4.47715 -10,10 l0,10 c0,5.52285 4.47715,10 10,10 c5.52285,0 10,-4.47715 10,-10 c0,-5.52285 -4.47715,-10 -10,-10 c-1.8170000000000002,0 -3.53157,0.49674 -5,1.34375 l0,-1.34375 c0,-2.76142 2.23858,-5 5,-5 c1.95426,0 3.6151,1.14704 4.4375,2.78125 l4.5,-2.25 c-1.6392700000000002,-3.28436 -5.01726,-5.53125 -8.9375,-5.53125 zm0,15 c2.76142,0 5,2.23858 5,5 c0,2.76142 -2.23858,5 -5,5 c-2.76142,0 -5,-2.23858 -5,-5 c0,-2.76142 2.23858,-5 5,-5 zm-5,16 l0,2 l10,0 l0,-2 l-10,0 z"
              style="fill-opacity:1;fill-rule:evenodd;stroke:none"/>
        <path d="m12.5,7.499987382812492 c-2.76143,0 -5,2.23859 -5,5.00001 l0,4.99998 c0,2.76143 2.23857,5.00001 5,5.00001 c2.76142,0 5,-2.23858 5,-5.00001 c0,-2.76141 -2.23858,-4.99998 -5,-4.99998 c-0.9085,0 -1.7657900000000002,0.24837 -2.5,0.6718700000000002 l0,-0.6718700000000002 c0,-1.38071 1.1192900000000001,-2.5 2.5,-2.5 c0.97712,0 1.80755,0.57351 2.21874,1.3906200000000002 l2.25,-1.125 c-0.8196200000000001,-1.6421800000000002 -2.50862,-2.7656300000000003 -4.46874,-2.7656300000000003 zm0,7.5 c1.3807,0 2.49999,1.11928 2.49999,2.49999 c0,1.38071 -1.1192900000000001,2.50001 -2.49999,2.50001 c-1.38071,0 -2.5,-1.1193 -2.5,-2.50001 c0,-1.38071 1.1192900000000001,-2.49999 2.5,-2.49999 z"
              style="fill:#ffffff;fill-opacity:1;fill-rule:evenodd;stroke:none"/>
        <path d="m47.5,82.49998738281249 c2.76143,0 5,-2.23859 5,-5.00001 l0,-4.99998 c0,-2.76143 -2.23857,-5.00001 -5,-5.00001 c-2.76142,0 -5,2.23858 -5,5.00001 c0,2.76141 2.23858,4.99998 5,4.99998 c0.9085,0 1.7657900000000002,-0.24837 2.5,-0.6718700000000002 l0,0.6718700000000002 c0,1.38071 -1.1192900000000001,2.5 -2.5,2.5 c-0.97712,0 -1.80755,-0.57351 -2.21874,-1.3906200000000002 l-2.25,1.125 c0.8196200000000001,1.6421800000000002 2.50862,2.7656300000000003 4.46874,2.7656300000000003 zm0,-7.5 c-1.3807,0 -2.49999,-1.11928 -2.49999,-2.49999 c0,-1.38071 1.1192900000000001,-2.50001 2.49999,-2.50001 c1.38071,0 2.5,1.1193 2.5,2.50001 c0,1.38071 -1.1192900000000001,2.49999 -2.5,2.49999 z"
              style="fill:#ffffff;fill-opacity:1;fill-rule:evenodd;stroke:none"/>
    </g>
</svg>
